D flip flop/13.Output.txt
UVM_INFO scoreboard.sv(31) @ 6: uvm_test_top.env.scb [Sb] Pass_input:t=6,clk=1,reset=0,d=0,Actual output:q=0||Expected output:q=0
UVM_INFO scoreboard.sv(31) @ 16: uvm_test_top.env.scb [Sb] Pass_input:t=16,clk=1,reset=0,d=1,Actual output:q=1||Expected output:q=1
UVM_INFO scoreboard.sv(31) @ 26: uvm_test_top.env.scb [Sb] Pass_input:t=26,clk=1,reset=0,d=1,Actual output:q=1||Expected output:q=1
UVM_INFO scoreboard.sv(31) @ 36: uvm_test_top.env.scb [Sb] Pass_input:t=36,clk=1,reset=0,d=1,Actual output:q=1||Expected output:q=1
UVM_INFO scoreboard.sv(31) @ 46: uvm_test_top.env.scb [Sb] Pass_input:t=46,clk=1,reset=0,d=1,Actual output:q=1||Expected output:q=1
UVM_INFO scoreboard.sv(31) @ 56: uvm_test_top.env.scb [Sb] Pass_input:t=56,clk=1,reset=1,d=1,Actual output:q=0||Expected output:q=0
UVM_INFO scoreboard.sv(31) @ 66: uvm_test_top.env.scb [Sb] Pass_input:t=66,clk=1,reset=1,d=1,Actual output:q=0||Expected output:q=0
UVM_INFO scoreboard.sv(31) @ 76: uvm_test_top.env.scb [Sb] Pass_input:t=76,clk=1,reset=0,d=1,Actual output:q=1||Expected output:q=1
UVM_INFO scoreboard.sv(31) @ 86: uvm_test_top.env.scb [Sb] Pass_input:t=86,clk=1,reset=0,d=1,Actual output:q=1||Expected output:q=1
UVM_INFO scoreboard.sv(31) @ 96: uvm_test_top.env.scb [Sb] Pass_input:t=96,clk=1,reset=0,d=1,Actual output:q=1||Expected output:q=1
UVM_INFO scoreboard.sv(31) @ 106: uvm_test_top.env.scb [Sb] Pass_input:t=106,clk=1,reset=0,d=1,Actual output:q=1||Expected output:q=1
UVM_INFO scoreboard.sv(31) @ 116: uvm_test_top.env.scb [Sb] Pass_input:t=116,clk=1,reset=0,d=1,Actual output:q=1||Expected output:q=1
UVM_INFO scoreboard.sv(31) @ 126: uvm_test_top.env.scb [Sb] Pass_input:t=126,clk=1,reset=0,d=1,Actual output:q=1||Expected output:q=1
UVM_INFO scoreboard.sv(31) @ 136: uvm_test_top.env.scb [Sb] Pass_input:t=136,clk=1,reset=1,d=0,Actual output:q=0||Expected output:q=0
UVM_INFO scoreboard.sv(31) @ 146: uvm_test_top.env.scb [Sb] Pass_input:t=146,clk=1,reset=1,d=0,Actual output:q=0||Expected output:q=0
UVM_INFO scoreboard.sv(31) @ 156: uvm_test_top.env.scb [Sb] Pass_input:t=156,clk=1,reset=0,d=0,Actual output:q=0||Expected output:q=0
UVM_INFO scoreboard.sv(31) @ 166: uvm_test_top.env.scb [Sb] Pass_input:t=166,clk=1,reset=0,d=0,Actual output:q=0||Expected output:q=0
UVM_INFO scoreboard.sv(31) @ 176: uvm_test_top.env.scb [Sb] Pass_input:t=176,clk=1,reset=0,d=0,Actual output:q=0||Expected output:q=0
UVM_INFO scoreboard.sv(31) @ 186: uvm_test_top.env.scb [Sb] Pass_input:t=186,clk=1,reset=0,d=0,Actual output:q=0||Expected output:q=0
UVM_INFO scoreboard.sv(31) @ 196: uvm_test_top.env.scb [Sb] Pass_input:t=196,clk=1,reset=0,d=0,Actual output:q=0||Expected output:q=0
UVM_INFO scoreboard.sv(31) @ 206: uvm_test_top.env.scb [Sb] Pass_input:t=206,clk=1,reset=0,d=0,Actual output:q=0||Expected output:q=0
UVM_INFO scoreboard.sv(31) @ 216: uvm_test_top.env.scb [Sb] Pass_input:t=216,clk=1,reset=0,d=0,Actual output:q=0||Expected output:q=0
UVM_INFO scoreboard.sv(31) @ 226: uvm_test_top.env.scb [Sb] Pass_input:t=226,clk=1,reset=0,d=0,Actual output:q=0||Expected output:q=0
UVM_INFO scoreboard.sv(31) @ 236: uvm_test_top.env.scb [Sb] Pass_input:t=236,clk=1,reset=0,d=0,Actual output:q=0||Expected output:q=0
UVM_INFO scoreboard.sv(31) @ 246: uvm_test_top.env.scb [Sb] Pass_input:t=246,clk=1,reset=0,d=0,Actual output:q=0||Expected output:q=0
UVM_INFO scoreboard.sv(31) @ 256: uvm_test_top.env.scb [Sb] Pass_input:t=256,clk=1,reset=0,d=0,Actual output:q=0||Expected output:q=0
UVM_INFO scoreboard.sv(31) @ 266: uvm_test_top.env.scb [Sb] Pass_input:t=266,clk=1,reset=0,d=0,Actual output:q=0||Expected output:q=0
UVM_INFO scoreboard.sv(31) @ 276: uvm_test_top.env.scb [Sb] Pass_input:t=276,clk=1,reset=0,d=0,Actual output:q=0||Expected output:q=0
UVM_INFO scoreboard.sv(31) @ 286: uvm_test_top.env.scb [Sb] Pass_input:t=286,clk=1,reset=0,d=0,Actual output:q=0||Expected output:q=0
UVM_INFO scoreboard.sv(31) @ 296: uvm_test_top.env.scb [Sb] Pass_input:t=296,clk=1,reset=0,d=0,Actual output:q=0||Expected output:q=0
